{
 "K": "Modification of a contract/concession during its term",
 "2": "Additional information",
 "3": "Contract notice",
 "7": "Contract award notice",
 "0": "Prior information notice without call for competition",
 "V": "Voluntary ex ante transparency notice",
 "H": "Services concession",
 "D": "Design contest",
 "Y": "Dynamic purchasing system",
 "B": "Buyer profile",
 "A": "Prior information notice with call for competition",
 "J": "Concession award notice",
 "R": "Results of design contests",
 "Q": "Qualification system without call for competition",
 "O": "Qualification system with call for competition",
 "C": "Works concession",
 "P": "Periodic indicative notice without call for competition",
 "M": "Periodic indicative notice with call for competition"
}